{
	"id": "cda79868-df55-4525-935d-ddc36a15e443",
	"name": "GoRest",
	"values": [
		{
			"key": "Url",
			"value": "https://gorest.co.in",
			"enabled": true
		},
		{
			"key": "user_email",
			"value": "",
			"enabled": true
		},
		{
			"key": "user_name",
			"value": "",
			"enabled": true
		},
		{
			"key": "user_gender",
			"value": "Male",
			"enabled": true
		},
		{
			"key": "user_status",
			"value": "Active",
			"enabled": true
		},
		{
			"key": "user_id",
			"value": "",
			"enabled": true
		},
		{
			"key": "post_title",
			"value": "",
			"enabled": true
		},
		{
			"key": "post_body",
			"value": "",
			"enabled": true
		},
		{
			"key": "post_id",
			"value": "",
			"enabled": true
		},
		{
			"key": "post_update_body",
			"value": "",
			"enabled": true
		},
		{
			"key": "todo_title",
			"value": "",
			"enabled": true
		},
		{
			"key": "todo_initialState",
			"value": "false",
			"enabled": true
		},
		{
			"key": "todo_completed",
			"value": "true",
			"enabled": true
		},
		{
			"key": "todo_id",
			"value": "",
			"enabled": true
		},
		{
			"key": "comment_senderName",
			"value": "",
			"enabled": true
		},
		{
			"key": "comment_senderEmail",
			"value": "",
			"enabled": true
		},
		{
			"key": "comment_body",
			"value": "",
			"enabled": true
		}
	],
	"_postman_variable_scope": "environment",
	"_postman_exported_at": "2021-06-14T06:27:39.891Z",
	"_postman_exported_using": "Postman/8.6.1"
}