{
	"info": {
		"_postman_id": "59b4dca6-e93f-4f14-a32b-ade7ac8d1907",
		"name": "TelerikAcademyHomework",
		"schema": "https://schema.getpostman.com/json/collection/v2.1.0/collection.json"
	},
	"item": [
		{
			"name": "Create user",
			"event": [
				{
					"listen": "prerequest",
					"script": {
						"exec": [
							"pm.environment.set(\"user_name\", \"Viktor\");\r",
							"pm.environment.set(\"user_email\", \"this_is_new_email@gmail.com\")\r",
							""
						],
						"type": "text/javascript"
					}
				},
				{
					"listen": "test",
					"script": {
						"exec": [
							"var requestData = JSON.parse(pm.request.toJSON().body.raw)\r",
							"var response = pm.response.json();\r",
							"\r",
							"pm.test(\"Currect name is set\", function(){ \r",
							"    Utils.compareTwoValuesAreEqual(requestData.name, response.data.name);  \r",
							"});\r",
							"\r",
							"pm.test(\"Currect email is set\", function(){\r",
							"   Utils.compareTwoValuesAreEqual( requestData.email, response.data.email);\r",
							"});\r",
							"\r",
							"pm.test(\"Currect gender is set\", function(){\r",
							"   Utils.compareTwoValuesAreEqual( requestData.gender,response.data.gender);\r",
							"});\r",
							"\r",
							"pm.test(\"Currect user status is set\", function(){\r",
							"    Utils.compareTwoValuesAreEqual(requestData.status,response.data.status)\r",
							"})\r",
							"\r",
							"pm.environment.set(\"user_id\", response.data.id);"
						],
						"type": "text/javascript"
					}
				}
			],
			"request": {
				"method": "POST",
				"header": [],
				"body": {
					"mode": "raw",
					"raw": "{\r\n    \"name\": \"{{user_name}}\",\r\n    \"email\": \"{{user_email}}\",\r\n    \"gender\": \"{{user_gender}}\",\r\n    \"status\": \"{{user_status}}\"\r\n}",
					"options": {
						"raw": {
							"language": "json"
						}
					}
				},
				"url": {
					"raw": "{{Url}}/public-api/users",
					"host": [
						"{{Url}}"
					],
					"path": [
						"public-api",
						"users"
					]
				}
			},
			"response": []
		},
		{
			"name": "Create post",
			"event": [
				{
					"listen": "prerequest",
					"script": {
						"exec": [
							"pm.environment.set(\"post_title\", \"Infit tripudio unus virtus veritatis venustas vespillo corporis dolor coepi condico chirographum credo provident.\");\r",
							"pm.environment.set(\"post_body\", \"Umbra admoveo vir. Titulus vestigium cauda. Video demitto tremo. Volup angustus vero. Terga cavus ambulo. Annus teres audacia. Ocer capio rem. Ultio sed cado. Cui cupiditas curo. Concido omnis coepi. Cribro compono appositus. Ipsa repudiandae summisse. Admoneo demergo ipsum. Acceptus qui asdaasdsbarba. Amplitudo verssus dasvitisum.das Quae neque aetas. Velociter verto facilis. Adimpleo autem accipio. Sub peior vociferor. Deputo vero cavaseo. Cuius tenedao centum. Dicta et barba. Ad vaco pauper. Coadunatio dapifer coniuratio. Talis ultra mollitia. Benigne aurum uterque. Comptus terror veniam. Villa valeo tenetur. Culpo sufficio alter.\");\r",
							"\r",
							""
						],
						"type": "text/javascript"
					}
				},
				{
					"listen": "test",
					"script": {
						"exec": [
							"var requestData = JSON.parse(pm.request.toJSON().body.raw)\r",
							"var response = pm.response.json();\r",
							"\r",
							"pm.test(\"Correct title is set\", function(){\r",
							"    Utils.compareTwoValuesAreEqual(requestData.title, response.data.title);\r",
							"});\r",
							"\r",
							"pm.test(\"Correct body is set\", function(){\r",
							"    Utils.compareTwoValuesAreEqual(requestData.body, response.data.body);\r",
							"});\r",
							"\r",
							"pm.test(\"Correct user created post\", function(){\r",
							"    Utils.compareTwoValuesAreEqual(pm.collectionVariables.get(\"user_id\"), response.data.user_id);\r",
							"})\r",
							"\r",
							"pm.environment.set(\"post_id\", response.data.id);"
						],
						"type": "text/javascript"
					}
				}
			],
			"request": {
				"method": "POST",
				"header": [],
				"body": {
					"mode": "raw",
					"raw": "{\r\n    \"user_id\": \"{{user_id}}\",\r\n    \"title\": \"{{post_title}}\",\r\n    \"body\": \"{{post_body}}\"\r\n}",
					"options": {
						"raw": {
							"language": "json"
						}
					}
				},
				"url": {
					"raw": "{{Url}}/public-api/users/{{user_id}}/posts",
					"host": [
						"{{Url}}"
					],
					"path": [
						"public-api",
						"users",
						"{{user_id}}",
						"posts"
					]
				}
			},
			"response": []
		},
		{
			"name": "Create to do",
			"event": [
				{
					"listen": "prerequest",
					"script": {
						"exec": [
							"pm.environment.set(\"todo_title\", \"I have toda clean\");\r",
							""
						],
						"type": "text/javascript"
					}
				},
				{
					"listen": "test",
					"script": {
						"exec": [
							"var requestData = JSON.parse(pm.request.toJSON().body.raw)\r",
							"var response = pm.response.json();\r",
							"\r",
							"\r",
							"pm.test(\"Correct title is set\", function(){\r",
							"    Utils.compareTwoValuesAreEqual(requestData.title, response.data.title);\r",
							"});\r",
							"\r",
							"pm.test(\"Correct user id is set\", function(){\r",
							"    Utils.compareTwoValuesAreEqual(pm.collectionVariables.get(\"user_id\"), response.data.user_id);\r",
							"});\r",
							"\r",
							"pm.test(\"Correct status is set\", function(){\r",
							"    Utils.compareTwoValuesAreEqual(pm.collectionVariables.get(\"todo_initialState\"),response.data.completed)\r",
							"})\r",
							"\r",
							"\r",
							"pm.environment.set(\"todo_id\", response.data.id);\r",
							""
						],
						"type": "text/javascript"
					}
				}
			],
			"request": {
				"method": "POST",
				"header": [],
				"body": {
					"mode": "raw",
					"raw": "{\r\n\"title\": \"{{todo_title}}\",\r\n\"completed\": \"{{todo_initialState}}\"\r\n}",
					"options": {
						"raw": {
							"language": "json"
						}
					}
				},
				"url": {
					"raw": "{{Url}}/public-api/users/{{user_id}}/todos",
					"host": [
						"{{Url}}"
					],
					"path": [
						"public-api",
						"users",
						"{{user_id}}",
						"todos"
					]
				}
			},
			"response": []
		},
		{
			"name": "Update todo",
			"event": [
				{
					"listen": "prerequest",
					"script": {
						"exec": [
							""
						],
						"type": "text/javascript"
					}
				},
				{
					"listen": "test",
					"script": {
						"exec": [
							"var requestData = JSON.parse(pm.request.toJSON().body.raw)\r",
							"var response = pm.response.json();\r",
							"\r",
							"\r",
							"pm.test(\"Todo is completed\", function(){\r",
							"    Utils.compareTwoValuesAreEqual(pm.collectionVariables.get(\"todo_completed\"), response.data.completed);\r",
							"})"
						],
						"type": "text/javascript"
					}
				}
			],
			"request": {
				"method": "PUT",
				"header": [],
				"body": {
					"mode": "raw",
					"raw": "{\r\n    \"completed\": \"{{todo_completed}}\"\r\n}",
					"options": {
						"raw": {
							"language": "json"
						}
					}
				},
				"url": {
					"raw": "{{Url}}/public-api/todos/{{todo_id}}",
					"host": [
						"{{Url}}"
					],
					"path": [
						"public-api",
						"todos",
						"{{todo_id}}"
					]
				}
			},
			"response": []
		},
		{
			"name": "Add comment to post",
			"event": [
				{
					"listen": "test",
					"script": {
						"exec": [
							"var requestData = JSON.parse(pm.request.toJSON().body.raw)\r",
							"var response = pm.response.json();\r",
							"\r",
							"pm.test(\"Correct post is commented\", function(){\r",
							"    Utils.compareTwoValuesAreEqual(pm.collectionVariables.get(\"post_id\"), response.data.post_id);\r",
							"});\r",
							"\r",
							"pm.test(\"Correct name is set\", function(){\r",
							"    Utils.compareTwoValuesAreEqual(requestData.comment_senderName, response.data.name);\r",
							"});\r",
							"\r",
							"pm.test(\"Correct email is set\", function(){\r",
							"    Utils.compareTwoValuesAreEqual(requestData.comment_senderEmail, response.data.email);\r",
							"});\r",
							"\r",
							"pm.test(\"Correct body is set\", function(){\r",
							"    Utils.compareTwoValuesAreEqual(requestData.comment_body, response.data.body);\r",
							"});\r",
							""
						],
						"type": "text/javascript"
					}
				},
				{
					"listen": "prerequest",
					"script": {
						"exec": [
							"pm.environment.set(\"comment_senderName\", \"Viktor\");\r",
							"pm.environment.set(\"comment_senderEmail\", \"randomEmail@gmailc.om\");\r",
							"pm.environment.set(\"comment_body\", \"This body is extremy hard tp be resued again and again no matter of time you ty\");"
						],
						"type": "text/javascript"
					}
				}
			],
			"request": {
				"method": "POST",
				"header": [],
				"body": {
					"mode": "raw",
					"raw": "{\r\n    \"name\": \"{{comment_senderName}}\",\r\n    \"email\": \"{{comment_senderEmail}}\",\r\n    \"body\": \"{{comment_body}}\"\r\n}",
					"options": {
						"raw": {
							"language": "json"
						}
					}
				},
				"url": {
					"raw": "{{Url}}/public-api/posts/{{post_id}}/comments",
					"host": [
						"{{Url}}"
					],
					"path": [
						"public-api",
						"posts",
						"{{post_id}}",
						"comments"
					]
				}
			},
			"response": []
		},
		{
			"name": "DeletePost",
			"event": [
				{
					"listen": "test",
					"script": {
						"exec": [
							""
						],
						"type": "text/javascript"
					}
				}
			],
			"request": {
				"method": "DELETE",
				"header": [],
				"body": {
					"mode": "file",
					"file": {}
				},
				"url": {
					"raw": "{{Url}}//public-api/posts/{{post_id}}",
					"host": [
						"{{Url}}"
					],
					"path": [
						"",
						"public-api",
						"posts",
						"{{post_id}}"
					]
				}
			},
			"response": []
		},
		{
			"name": "DeleteUser",
			"event": [
				{
					"listen": "test",
					"script": {
						"exec": [
							""
						],
						"type": "text/javascript"
					}
				}
			],
			"request": {
				"method": "DELETE",
				"header": [],
				"url": {
					"raw": "{{Url}}/public-api/users/{{user_id}}",
					"host": [
						"{{Url}}"
					],
					"path": [
						"public-api",
						"users",
						"{{user_id}}"
					]
				}
			},
			"response": []
		}
	],
	"auth": {
		"type": "bearer",
		"bearer": [
			{
				"key": "token",
				"value": "2bd114cf9fe5ad021bff5e4ffea4ad9e8ecd84c05ff43a9adbe92e8bb0424722",
				"type": "string"
			}
		]
	},
	"event": [
		{
			"listen": "prerequest",
			"script": {
				"type": "text/javascript",
				"exec": [
					"Utils = {",
					"    ",
					"    compareTwoValuesAreEqual: function(expect,actual){",
					"        pm.expect(expect == actual);",
					"    }",
					"};",
					""
				]
			}
		},
		{
			"listen": "test",
			"script": {
				"type": "text/javascript",
				"exec": [
					"pm.test(\"Status code is 200\", function () {",
					"    pm.response.to.have.status(200);",
					"});",
					" var response  = pm.response.json();",
					"// if(pm.info.requestName == \"Create user\" || pm.info.requestName ==\"Create post\" || pm.info.requestName==\"Create to do\" || pm.info.requestName == \"Add comment to post\") {",
					"   ",
					"// }",
					"",
					"if(pm.info.requestName == \"DeletePost\" || pm.info.requestName == \"DeleteUser\"){",
					"    pm.test(\"Response status code is 204\", function(){",
					"    pm.expect(204).to.eql(response.code);",
					"    pm.test(\"Data is null\", function(){",
					"    pm.expect(response.data).is.null;",
					"})",
					"});",
					"}",
					"",
					" ",
					"",
					""
				]
			}
		}
	],
	"variable": [
		{
			"key": "Url",
			"value": "",
			"disabled": true
		},
		{
			"key": "post_id",
			"value": "",
			"disabled": true
		},
		{
			"key": "post_update_body",
			"value": "",
			"disabled": true
		},
		{
			"key": "todo_title",
			"value": "",
			"disabled": true
		},
		{
			"key": "todo_initialState",
			"value": "",
			"disabled": true
		},
		{
			"key": "todo_completed",
			"value": "",
			"disabled": true
		},
		{
			"key": "todo_id",
			"value": "",
			"disabled": true
		},
		{
			"key": "comment_senderName",
			"value": "",
			"disabled": true
		},
		{
			"key": "comment_senderEmail",
			"value": "",
			"disabled": true
		},
		{
			"key": "comment_body",
			"value": "",
			"disabled": true
		}
	]
}